commit 9a48e4aa28f164df4e0b7b5b1ede06cbfe5131e3
Author: jwe535 <jweaston99@gmail.com>
Date:   Thu Jun 24 16:09:39 2021 -0500

    got cProfile working

commit 26210e6eec925515cbc70a1dd13b408d6c1df574
Author: jwe535 <jweaston99@gmail.com>
Date:   Thu Jun 24 15:21:12 2021 -0500

    did autopep8 and pydoc make functions

commit 3f4cc547e6b1337800f559981f9ae40133f07585
Author: jwe535 <jweaston99@gmail.com>
Date:   Thu Jun 24 14:26:16 2021 -0500

    updated unittest to improve coverage

commit 3c74621e5562194409f5beec9c4537c224e699f7
Author: jwe535 <jweaston99@gmail.com>
Date:   Wed Jun 23 17:57:13 2021 -0500

    Added additional solve unittests

commit f60af295cfed52882575b42fd6a6b92a32b2fb2e
Author: jwe535 <jweaston99@gmail.com>
Date:   Wed Jun 23 17:53:24 2021 -0500

    Created SphereCollatz.py

commit 94a5668666c5ebc23be97c4ffde70e5aba237656
Author: jwe535 <jweaston99@gmail.com>
Date:   Wed Jun 23 16:56:10 2021 -0500

    uncommented block

commit 318a17a03d5aa1b64dcd25a1a76d535315bc78ee
Author: jwe535 <jweaston99@gmail.com>
Date:   Wed Jun 23 16:34:18 2021 -0500

    fixed semicolon issue

commit 136f4b82eebba63fc69fd739ad927e4ee418767a
Author: jwe535 <jweaston99@gmail.com>
Date:   Wed Jun 23 16:32:26 2021 -0500

    Added cache implemation to program

commit 1ed8f066730f1344b7bb95bee4a260aae2c9f994
Merge: 0ff137f 3f47b20
Author: James Easton <jweaston99@gmail.com>
Date:   Wed Jun 23 21:15:22 2021 +0000

    Merge branch 'revert-0ff137f6' into 'main'
    
    Revert "Merge branch 'revert-d85408af' into 'main'"
    
    See merge request yaashi24/collatz!3

commit 3f47b2081c83100a300191911b19935415fb3a34
Author: James Easton <jweaston99@gmail.com>
Date:   Wed Jun 23 21:14:15 2021 +0000

    Revert "Merge branch 'revert-d85408af' into 'main'"
    
    This reverts merge request !2

commit 0ff137f6658473a3f97e9e3fa7f26d4772d009d6
Merge: d85408a c2bde77
Author: Yaashi Khatri <yaashikhatri@gmail.com>
Date:   Wed Jun 23 20:59:45 2021 +0000

    Merge branch 'revert-d85408af' into 'main'
    
    Revert "Merge branch 'dev' into 'main'"
    
    See merge request yaashi24/collatz!2

commit c2bde77c2315b473bd3b65a81bbaa37a416736c4
Author: Yaashi Khatri <yaashikhatri@gmail.com>
Date:   Wed Jun 23 20:58:06 2021 +0000

    Revert "Merge branch 'dev' into 'main'"
    
    This reverts merge request !1

commit d85408afe118581dc50ce24aa9b63de1d4e20d15
Merge: 171d7c8 39fada4
Author: Yaashi Khatri <yaashikhatri@gmail.com>
Date:   Wed Jun 23 20:53:29 2021 +0000

    Merge branch 'dev' into 'main'
    
    Merge1
    
    See merge request yaashi24/collatz!1

commit 39fada4b427f4c18d55e83f89b9f4d20f6dd5143
Author: jwe535 <jweaston99@gmail.com>
Date:   Tue Jun 22 18:53:52 2021 -0500

    Updated RunCollatz.out

commit bef17aefb00e6e1bdf30adcb51997ffb7a1a5d91
Author: jwe535 <jweaston99@gmail.com>
Date:   Tue Jun 22 18:47:54 2021 -0500

    Fixed Test Case issue

commit 07c855e58955adb400617388ad2abf2b523c663a
Author: jwe535 <jweaston99@gmail.com>
Date:   Tue Jun 22 18:39:21 2021 -0500

    Wrote script to gen test cases for RunCollatz.in

commit ef956b35041f5379b7598e2befa49d51eaa8bf53
Author: jwe535 <jweaston99@gmail.com>
Date:   Mon Jun 21 16:47:37 2021 -0500

    Fix one off issue

commit f0a1c612a557b23079198504655191790fa9e0d9
Author: jwe535 <jweaston99@gmail.com>
Date:   Mon Jun 21 16:17:50 2021 -0500

    Fixed Unit tests

commit cff95975d53344aa75f9aad4fddf78d397cd439f
Author: jwe535 <jweaston99@gmail.com>
Date:   Mon Jun 21 16:17:38 2021 -0500

    Implemented collatz_eval

commit 171d7c8cf0fec8b77b34c8b57d21f176a9f87fda
Author: Fares Fraij <fares@cs.utexas.edu>
Date:   Thu Jun 3 14:48:30 2021 -0500

    first commit

commit 43e04beca948a84d7d2ed96d2f9fb78704d75adc
Author: Fares Fraij <fares@utexas.edu>
Date:   Thu Jun 3 19:47:02 2021 +0000

    Initial commit
